<svg viewBox="0 0 25 24" xmlns="http://www.w3.org/2000/svg">
<path fill-rule="evenodd" clip-rule="evenodd" d="M16.9645 11C18.6245 11 19.9545 9.66 19.9545 8C19.9545 6.34 18.6245 5 16.9645 5C15.3045 5 13.9645 6.34 13.9645 8C13.9645 9.66 15.3045 11 16.9645 11ZM8.96448 11C10.6245 11 11.9545 9.66 11.9545 8C11.9545 6.34 10.6245 5 8.96448 5C7.30448 5 5.96448 6.34 5.96448 8C5.96448 9.66 7.30448 11 8.96448 11ZM8.96448 13C6.63448 13 1.96448 14.17 1.96448 16.5V18C1.96448 18.55 2.41448 19 2.96448 19H14.9645C15.5145 19 15.9645 18.55 15.9645 18V16.5C15.9645 14.17 11.2945 13 8.96448 13ZM16.9645 13C16.6745 13 16.3445 13.02 15.9945 13.05C16.0145 13.06 16.0245 13.08 16.0345 13.09C17.1745 13.92 17.9645 15.03 17.9645 16.5V18C17.9645 18.35 17.8945 18.69 17.7845 19H22.9645C23.5145 19 23.9645 18.55 23.9645 18V16.5C23.9645 14.17 19.2945 13 16.9645 13Z"/>
</svg>
