<svg width="24" height="24" viewBox="0 0 24 24" xmlns="http://www.w3.org/2000/svg">
<path fill-rule="evenodd" clip-rule="evenodd" d="M24 12C24 18.6274 18.6274 24 12 24C5.37258 24 0 18.6274 0 12H2C2 17.5228 6.47715 22 12 22C17.5228 22 22 17.5228 22 12C22 6.47715 17.5228 2 12 2V0C18.6274 0 24 5.37258 24 12Z"/>
<circle cx="1" cy="12" r="1"/>
<circle cx="12" cy="1" r="1"/>
</svg>
